module github.com/k8snetworkplumbingwg/multus-dynamic-networks-controller

go 1.18

require (
	github.com/containerd/containerd v1.6.9
	github.com/containernetworking/cni v1.1.2
	github.com/gogo/protobuf v1.3.2
	github.com/k8snetworkplumbingwg/network-attachment-definition-client v1.3.0
	github.com/onsi/ginkgo v1.16.5
	github.com/onsi/ginkgo/v2 v2.5.0
	github.com/onsi/gomega v1.24.1
	github.com/opencontainers/runtime-spec v1.0.3-0.20210326190908-1c3f411f0417
	google.golang.org/grpc v1.50.1
	gopkg.in/k8snetworkplumbingwg/multus-cni.v3 v3.9.1
	k8s.io/api v0.24.4
	k8s.io/apimachinery v0.24.4
	k8s.io/client-go v0.24.4
	k8s.io/cri-api v0.25.0
	k8s.io/klog/v2 v2.80.1
)

require (
	github.com/Microsoft/go-winio v0.5.2 // indirect
	github.com/Microsoft/hcsshim v0.9.4 // indirect
	github.com/PuerkitoBio/purell v1.1.1 // indirect
	github.com/PuerkitoBio/urlesc v0.0.0-20170810143723-de5bf2ad4578 // indirect
	github.com/containerd/cgroups v1.0.3 // indirect
	github.com/containerd/continuity v0.3.0 // indirect
	github.com/containerd/fifo v1.0.0 // indirect
	github.com/containerd/ttrpc v1.1.0 // indirect
	github.com/containerd/typeurl v1.0.2 // indirect
	github.com/davecgh/go-spew v1.1.1 // indirect
	github.com/docker/go-events v0.0.0-20190806004212-e31b211e4f1c // indirect
	github.com/emicklei/go-restful v2.10.0+incompatible // indirect
	github.com/evanphx/json-patch v4.12.0+incompatible // indirect
	github.com/fsnotify/fsnotify v1.5.1 // indirect
	github.com/go-logr/logr v1.2.3 // indirect
	github.com/go-openapi/jsonpointer v0.19.5 // indirect
	github.com/go-openapi/jsonreference v0.19.5 // indirect
	github.com/go-openapi/swag v0.19.14 // indirect
	github.com/gogo/googleapis v1.4.0 // indirect
	github.com/golang/groupcache v0.0.0-20210331224755-41bb18bfe9da // indirect
	github.com/golang/protobuf v1.5.2 // indirect
	github.com/google/gnostic v0.5.7-v3refs // indirect
	github.com/google/go-cmp v0.5.9 // indirect
	github.com/google/gofuzz v1.2.0 // indirect
	github.com/google/uuid v1.2.0 // indirect
	github.com/imdario/mergo v0.3.12 // indirect
	github.com/josharian/intern v1.0.0 // indirect
	github.com/json-iterator/go v1.1.12 // indirect
	github.com/klauspost/compress v1.11.13 // indirect
	github.com/mailru/easyjson v0.7.6 // indirect
	github.com/moby/locker v1.0.1 // indirect
	github.com/moby/sys/mountinfo v0.5.0 // indirect
	github.com/moby/sys/signal v0.6.0 // indirect
	github.com/modern-go/concurrent v0.0.0-20180306012644-bacd9c7ef1dd // indirect
	github.com/modern-go/reflect2 v1.0.2 // indirect
	github.com/munnerz/goautoneg v0.0.0-20191010083416-a7dc8b61c822 // indirect
	github.com/nxadm/tail v1.4.8 // indirect
	github.com/opencontainers/go-digest v1.0.0 // indirect
	github.com/opencontainers/image-spec v1.0.3-0.20211202183452-c5a74bcca799 // indirect
	github.com/opencontainers/runc v1.1.2 // indirect
	github.com/opencontainers/selinux v1.10.1 // indirect
	github.com/pkg/errors v0.9.1 // indirect
	github.com/sirupsen/logrus v1.8.1 // indirect
	github.com/spf13/pflag v1.0.5 // indirect
	go.opencensus.io v0.23.0 // indirect
	golang.org/x/net v0.2.0 // indirect
	golang.org/x/oauth2 v0.0.0-20211104180415-d3ed0bb246c8 // indirect
	golang.org/x/sync v0.0.0-20210220032951-036812b2e83c // indirect
	golang.org/x/sys v0.2.0 // indirect
	golang.org/x/term v0.2.0 // indirect
	golang.org/x/text v0.4.0 // indirect
	golang.org/x/time v0.0.0-20220210224613-90d013bbcef8 // indirect
	google.golang.org/appengine v1.6.7 // indirect
	google.golang.org/genproto v0.0.0-20220502173005-c8bf987b8c21 // indirect
	google.golang.org/protobuf v1.28.0 // indirect
	gopkg.in/inf.v0 v0.9.1 // indirect
	gopkg.in/natefinch/lumberjack.v2 v2.0.0 // indirect
	gopkg.in/tomb.v1 v1.0.0-20141024135613-dd632973f1e7 // indirect
	gopkg.in/yaml.v2 v2.4.0 // indirect
	gopkg.in/yaml.v3 v3.0.1 // indirect
	k8s.io/kube-openapi v0.0.0-20220413171646-5e7f5fdc6da6 // indirect
	k8s.io/utils v0.0.0-20220210201930-3a6ce19ff2f9 // indirect
	sigs.k8s.io/json v0.0.0-20211208200746-9f7c6b3444d2 // indirect
	sigs.k8s.io/structured-merge-diff/v4 v4.2.1 // indirect
	sigs.k8s.io/yaml v1.3.0 // indirect
)

replace (
	k8s.io/api => k8s.io/api v0.24.4
	k8s.io/apiextensions-apiserver => k8s.io/apiextensions-apiserver v0.24.4
	k8s.io/apimachinery => k8s.io/apimachinery v0.24.4
	k8s.io/apiserver => k8s.io/apiserver v0.24.4
	k8s.io/cli-runtime => k8s.io/cli-runtime v0.24.4
	k8s.io/client-go => k8s.io/client-go v0.24.4
	k8s.io/cloud-provider => k8s.io/cloud-provider v0.24.4
	k8s.io/cluster-bootstrap => k8s.io/cluster-bootstrap v0.24.4
	k8s.io/code-generator => k8s.io/code-generator v0.24.4
	k8s.io/component-base => k8s.io/component-base v0.24.4
	k8s.io/component-helpers => k8s.io/component-helpers v0.24.4
	k8s.io/controller-manager => k8s.io/controller-manager v0.24.4
	k8s.io/cri-api => k8s.io/cri-api v0.24.4
	k8s.io/csi-translation-lib => k8s.io/csi-translation-lib v0.24.4
	k8s.io/kube-aggregator => k8s.io/kube-aggregator v0.24.4
	k8s.io/kube-controller-manager => k8s.io/kube-controller-manager v0.24.4
	k8s.io/kube-proxy => k8s.io/kube-proxy v0.24.4
	k8s.io/kube-scheduler => k8s.io/kube-scheduler v0.24.4
	k8s.io/kubectl => k8s.io/kubectl v0.24.4
	k8s.io/kubelet => k8s.io/kubelet v0.24.4
	k8s.io/kubernetes => k8s.io/kubernetes v1.22.8
	k8s.io/legacy-cloud-providers => k8s.io/legacy-cloud-providers v0.24.4
	k8s.io/metrics => k8s.io/metrics v0.24.4
	k8s.io/mount-utils => k8s.io/mount-utils v0.24.4
	k8s.io/pod-security-admission => k8s.io/pod-security-admission v0.24.4
	k8s.io/sample-apiserver => k8s.io/sample-apiserver v0.24.4
)

replace gopkg.in/k8snetworkplumbingwg/multus-cni.v3 => github.com/k8snetworkplumbingwg/multus-cni v0.0.0-20221014153412-fa8a6e688081
